[{
  "_id": {
    "$oid": "6355e6559297a53fb305fc02"
  },
  "id": "1",
  "id_categoria": "1",
  "nombre": "virgen de Santa Agarradero",
  "descripcion": "Alturas: 30cm\nColores personalizados",
  "precio": 30000,
  "activo": true
},{
  "_id": {
    "$oid": "6355e6559297a53fb305fc03"
  },
  "id": "2",
  "id_categoria": "1",
  "nombre": "Virgen de Guadalupe",
  "descripcion": "Alturas: 30cm\nColores personalizados",
  "precio": 30000,
  "activo": true
},{
  "_id": {
    "$oid": "6355e6559297a53fb305fc04"
  },
  "id": "3",
  "id_categoria": "1",
  "nombre": "Virgen de la Dulce Espera",
  "descripcion": "Alturas: 30cm\nColores personalizados",
  "precio": 30000,
  "activo": true
},{
  "_id": {
    "$oid": "6355e6559297a53fb305fc05"
  },
  "id": "4",
  "id_categoria": "4",
  "nombre": "San Jose",
  "descripcion": "Alturas: 30cm\nColores personalizados",
  "precio": 30000,
  "activo": true
},{
  "_id": {
    "$oid": "6355e6559297a53fb305fc06"
  },
  "id": "5",
  "id_categoria": "1",
  "nombre": "Virgen del Rosario",
  "descripcion": "Alturas: 30cm\nColores personalizados",
  "precio": 30000,
  "activo": true
},{
  "_id": {
    "$oid": "6355ee309297a53fb305fc1f"
  },
  "id": "6",
  "id_categoria": "1",
  "nombre": "Virgen Desatanudos",
  "descripcion": "Alturas: 30cm\nColores personalizados",
  "precio": 30000,
  "activo": true
},{
  "_id": {
    "$oid": "6355ee489297a53fb305fc20"
  },
  "id": "7",
  "id_categoria": "4",
  "nombre": "San Pablo",
  "descripcion": "Alturas: 30cm\nColores personalizados",
  "precio": 30000,
  "activo": true
}]